Meteorological Data • MonalisR
…
Download from Database

Analogous to the MONALISA Database in the example before we can access the database with the downloadMeteo function providing key input sich as the code of a single station, the sensor code corresponding to a product or a daterange. By default the data is stored in memory. If you want to download it you need to provide a path and set the csv variable as TRUE

s <- "2017-01-01 00:00"
e <- "2018-01-01 00:00"
a<-downloadMeteo2(station_code = "02500MS",
                 sensor_code = "LT",
                 datestart = s,
                 dateend = e)

a

## # A tibble: 52,518 x 6
##    TimeStamp           SCODE   Sensor Start    End      Value
##    <dttm>              <fct>   <fct>  <chr>    <chr>    <dbl>
##  1 2017-01-01 00:00:00 02500MS LT     20170101 20180101   1.9
##  2 2017-01-01 00:10:00 02500MS LT     20170101 20180101   1.8
##  3 2017-01-01 00:20:00 02500MS LT     20170101 20180101   1.6
##  4 2017-01-01 00:30:00 02500MS LT     20170101 20180101   1.5
##  5 2017-01-01 00:40:00 02500MS LT     20170101 20180101   1.5
##  6 2017-01-01 00:50:00 02500MS LT     20170101 20180101   1.6
##  7 2017-01-01 01:00:00 02500MS LT     20170101 20180101   1.4
##  8 2017-01-01 01:10:00 02500MS LT     20170101 20180101   1.5
##  9 2017-01-01 01:20:00 02500MS LT     20170101 20180101   1  
## 10 2017-01-01 01:30:00 02500MS LT     20170101 20180101   1.1
## # ... with 52,508 more rows
…
